verilog/tb_dvsd_4bit_binary_counter.vcd
$date
	Fri Aug 20 22:16:20 2021
$end
$version
	Icarus Verilog
$end
$timescale
	1ps
$end
$scope module tb_dvsd_4bit_binary_counter $end
$var wire 4 ! out [3:0] $end
$var reg 1 " clk $end
$var reg 1 # reset $end
$var reg 1 $ updown $end
$scope module c0 $end
$var wire 1 " clk $end
$var wire 1 # reset $end
$var wire 1 $ updown $end
$var reg 4 % out [3:0] $end
$upscope $end
$upscope $end
$enddefinitions $end
#0
$dumpvars
bx %
0$
0#
0"
bx !
$end
#5000
b0 !
b0 %
1$
1#
1"
#10000
0"
#15000
1"
#20000
0"
#25000
1"
#30000
0"
#35000
b1111 !
b1111 %
1"
0$
0#
#40000
0"
#45000
b1110 !
b1110 %
1"
#50000
0"
#55000
b1101 !
b1101 %
1"
#60000
0"
#65000
b1100 !
b1100 %
1"
#70000
0"
#75000
b1011 !
b1011 %
1"
#80000
0"
#85000
b1100 !
b1100 %
1"
1$
#90000
0"
#95000
b1101 !
b1101 %
1"
#100000
0"
#105000
b1110 !
b1110 %
1"
#110000
0"
#115000
b1111 !
b1111 %
1"
#120000
0"
#125000
b0 !
b0 %
1"
#130000
0"
#135000
b1 !
b1 %
1"
#140000
0"
#145000
b10 !
b10 %
1"
#150000
0"
#155000
b11 !
b11 %
1"
#160000
0"
#165000
b100 !
b100 %
1"
#170000
0"
#175000
b101 !
b101 %
1"
#180000
0"
#185000
b110 !
b110 %
1"
#190000
0"
#195000
b111 !
b111 %
1"
#200000
0"
#205000
b1000 !
b1000 %
1"
#210000
0"
#215000
b1001 !
b1001 %
1"
#220000
0"
#225000
b1010 !
b1010 %
1"
#230000
0"
#235000
b0 !
b0 %
1"
1#
